200kWh per day per person
1kWh per full sunshine hour?
~5kWh per sunny day?
~3kWh per m2 per day on sunny area
0.3kWh per m2 per day on pv

700m2 per person
700 * 7,250,000,000
148,940,000 km2 land  = 148,940,000 * 1,000,000



5075000000000 / 148940000000000 = 0.0340741238082449308446354236605
 5,075,000,000,000
14,000,000,000,000
148,940,000,000,000
 44,000,000,000,000 desert (including antarctica/artic)
 16,000,000,000,000 + hot desert